{
    "extensionDescription": {
        "message": "Chrání před sledováním skrze centrálně doručovaný obsah pomocí přesměrování na lokální zdroje.",
        "description": "Protects you against tracking through CDNs (Content Delivery Networks) by redirecting to local resources."
    },
    "amountInjectedDescription": {
        "message": "Počet lokální uložených zdrojů vložených od instalace.",
        "description": "Amount injected description."
    },
    "optionsTitle": {
        "message": "Možnosti",
        "description": "Options title"
    },
    "showIconBadgeTitle": {
        "message": "Zobrazovat počet vložení u ikony",
        "description": "Show icon badge title"
    },
    "showIconBadgeDescription": {
        "message": "Zobrazit počet vložených zdrojů u ikony rozšíření.",
        "description": "Show icon badge description."
    },
    "blockMissingTitle": {
        "message": "Blokovat požadavky na chybějící zdroje",
        "description": "Block requests for missing resources title"
    },
    "blockMissingDescription": {
        "message": "Zrušit požadavky na sledované zdroje, pokud nejsou lokálně dostupné.",
        "description": "Block requests for missing resources description."
    },
    "disablePrefetchTitle": {
        "message": "Zakázat přednačítání odkazů",
        "description": "Disable prefetch title"
    },
    "disablePrefetchDescription": {
        "message": "Předejte nepovoleným požadavkům do sítí pro doručování obsahu.",
        "description": "Disable prefetch description."
    },
    "stripMetadataTitle": {
        "message": "Odstranit metadata z povolených požadavků",
        "description": "Strip metadata title"
    },
    "stripMetadataDescription": {
        "message": "Pro zlepšení soukromí odstraní citlivá data z povolených požadavků na CDN.",
        "description": "Strip metadata description."
    },
    "allowlistedDomainsTitle": {
        "message": "Nekontrolovat pro domény:",
        "description": "Deactivate LocalCDN for these domains:"
    },
    "allowlistedDomainsDescription": {
        "message": "Zadejte domény pro jejich vynechání z kontroly. Jedna doména na řádek.",
        "description": "Enter domains to disable LocalCDN there. One entry per line."
    },
    "advancedLabel": {
        "message": "Rozšířené",
        "description": "Advanced label"
    },
    "generateRuleSetTitle": {
        "message": "Generujte sady pravidel pro váš adblocker",
        "description": "Generate rule sets for your adblocker"
    },
    "generateRuleSetDescription": {
        "message": "V případě, že používáte adblocker, si zde můžete vygenerovat pravidla. Tato pravidla musíte přidat do vašeho adblockeru manuálně.",
        "description": "In case you are using an adblocker you can generate the rules here. You have to add these rules manually in your adblocker."
    },
    "lastUpdate": {
        "message": "Poslední aktualizace:",
        "description": "Last update:"
    },
    "copyRuleSet": {
        "message": "Kopírovat",
        "description": "Text of button to copy ruleset"
    },
    "loggingTitle": {
        "message": "Povolit protokolování",
        "description": "Enable logging"
    },
    "loggingDescription": {
        "message": "Protokol můžete otevřít pomocí ikony v menu. Protokol bude vymazán, pokud zavřete prohlížeč nebo protokolování vypnete.",
        "description": "You can open the log with the icon in the menu. The log will be deleted when you close the browser or disable logging."
    },
    "featureBreaksWebsitesDescription": {
        "message": "",
        "description": "This feature breaks websites. Do not leave it enabled, unless you are prepared to manually add affected domains to the allow list."
    },
    "featureBreaksWebsitesButton": {
        "message": "Zakázat",
        "description": "Disable"
    },
    "labelManipulateDOM": {
        "message": "",
        "description": "Filter HTML source code"
    },
    "labelDonate": {
        "message": "Darovat",
        "description": "Donate"
    },
    "negateHtmlFilterListTitle": {
        "message": "Invertovat HTML filtr",
        "description": "Invert HTML filter"
    },
    "negateHtmlFilterListDescription": {
        "message": "",
        "description": "Enable this option to always apply the HTML filter. The domains in the list will be ignored then. If this option is disabled, the HTML filter is only applied to domains in the list."
    },
    "negateHtmlFilterListWarning": {
        "message": "",
        "description": "This function can break websites. Please note the information on the Wiki page."
    },
    "htmlFilterDomainsTitleExclude": {
        "message": "",
        "description": "Do not apply HTML filter to these domains:"
    },
    "htmlFilterDomainsDescription": {
        "message": "",
        "description": "Enter the domains to be handled or ignored by the HTML filter. One entry per line."
    },
    "htmlFilterDomainsTitleInclude": {
        "message": "",
        "description": "Apply HTML filter for these domains:"
    },
    "blockGoogleFontsTitle": {
        "message": "Zablokovat Google Fonts",
        "description": "Block Google Fonts"
    },
    "blockGoogleFontsDescription": {
        "message": "",
        "description": "If requests for missing resources are allowed, connections to \"fonts.googleapis.com\" are not blocked. Enable this option to block these requests."
    },
    "chooseIconStyle": {
        "message": "Vyberte si ikonu pro toto rozšíření",
        "description": "Choose an icon for this extension"
    },
    "internalStatisticsTitle": {
        "message": "Interní statistiky",
        "description": "Internal statistics"
    },
    "internalStatisticsDescription": {
        "message": "Tato funkce je momentálně v experimentální fázi. Žádný přenos dat. Vše je lokálně na vašem zařízení.",
        "description": "No data transmission. It’s all local on your device."
    },
    "headerStatistics": {
        "message": "Statistiky",
        "description": "Statistics. The header of a statistics page."
    },
    "labelToday": {
        "message": "Dnes",
        "description": "Statistics view for today."
    },
    "labelPastWeek": {
        "message": "Minulý týden",
        "description": "Statistics view for past week."
    },
    "labelPastMonth": {
        "message": "Minulý měsíc",
        "description": "Statistics view for past month."
    },
    "labelPastYear": {
        "message": "Minulý rok",
        "description": "Statistics view for past year."
    },
    "labelDelete": {
        "message": "Smazat",
        "description": "Button to delete all statistics data."
    },
    "labelAvg": {
        "message": "Průměr (Nahrazení za den)",
        "description": "Followed by a number of average injections per day within a specific period."
    },
    "labelInjectedFrameworks": {
        "message": "Nahrazené frameworky",
        "description": "Followed by a number of injections within a specific period."
    },
    "dialogConfirmDeleteStatistics": {
        "message": "Jste si jistý, že chcete smazat všechny statistiky?",
        "description": "Are you sure you want to delete all the statistics?"
    },
    "labelDomainsAllowlistGoogleFonts": {
        "message": "",
        "description": "These domains are allowed to load Google Fonts. One entry per line."
    },
    "btnGeneral": {
        "message": "Základní",
        "description": "Basic"
    },
    "btnAdvanced": {
        "message": "Pokročilý",
        "description": "Advanced"
    },
    "btnOther": {
        "message": "Ostatní",
        "description": "Other"
    },
    "btnInfo": {
        "message": "Info",
        "description": "Info"
    },
    "headerStorageType": {
        "message": "Typ uložení",
        "description": "Storage type"
    },
    "labelStorageTypeLocal": {
        "message": "Lokální",
        "description": "Local"
    },
    "labelStorageTypeSync": {
        "message": "Synchronizovat",
        "description": "Sync"
    },
    "headerImportExport": {
        "message": "Importovat/Exportovat",
        "description": "Import/Export"
    },
    "labelExportData": {
        "message": "Zazálohovat do souboru",
        "description": "Back up to file"
    },
    "labelImportData": {
        "message": "Obnovit ze souboru",
        "description": "Restore from file"
    },
    "dialogImportSuccessful": {
        "message": "Import úspěšný",
        "description": "Import successful"
    },
    "dialogImportFailed": {
        "message": "Import selhal",
        "description": "Import failed"
    },
    "updateNotificationTitle": {
        "message": "Upozornění po aktualizaci",
        "description": "Notification after an update"
    },
    "updateNotificationNever": {
        "message": "Nikdy (Tiché aktualizace)",
        "description": "Never (Silent Updates)"
    },
    "updateNotificationOnlyRules": {
        "message": "Jen pokud jsou nové CDN a pravidla",
        "description": "Only if new CDNs and rules"
    },
    "updateNotificationAlways": {
        "message": "Vždy",
        "description": "Always"
    },
    "websiteBroken": {
        "message": "Stránka nefunguje správně?",
        "description": "Website broken?"
    },
    "hideDonationButton": {
        "message": "Skrýt tlačítko pro přispění",
        "description": "Hide donation button"
    },
    "betaLabel": {
        "message": "Beta",
        "description": "beta"
    },
    "changeBadgeColorMissingResourcesTitle": {
        "message": "",
        "description": "Indicate missing resources on the icon"
    },
    "changeBadgeColorMissingResourcesDescription": {
        "message": "",
        "description": "Change the badge color if resources are missing."
    }
}
