{
    "extensionDescription": {
        "message": "将请求重定向到本地资源，保护你免于 CDN（内容分发网络）的跟踪。",
        "description": "Protects you against tracking through CDNs (Content Delivery Networks) by redirecting to local resources."
    },
    "amountInjectedDescription": {
        "message": "自安装以来本地 CDN 资源的注入次数。",
        "description": "Amount injected description."
    },
    "optionsTitle": {
        "message": "选项",
        "description": "Options title"
    },
    "showIconBadgeTitle": {
        "message": "在图标上显示注入数量",
        "description": "Show icon badge title"
    },
    "showIconBadgeDescription": {
        "message": "在扩展图标上显示注入资源的数量。",
        "description": "Show icon badge description."
    },
    "blockMissingTitle": {
        "message": "阻止缺失资源的请求",
        "description": "Block requests for missing resources title"
    },
    "blockMissingDescription": {
        "message": "如果请求的资源在本地不可用，则取消当前被拦截的请求。",
        "description": "Block requests for missing resources description."
    },
    "disablePrefetchTitle": {
        "message": "禁用链接预读取",
        "description": "Disable prefetch title"
    },
    "disablePrefetchDescription": {
        "message": "防止误发被屏蔽的请求到 CDN。",
        "description": "Disable prefetch description."
    },
    "stripMetadataTitle": {
        "message": "清除被允许的请求中的元数据",
        "description": "Strip metadata title"
    },
    "stripMetadataDescription": {
        "message": "从被允许的 CDN 请求中擦除敏感数据，以保护隐私。",
        "description": "Strip metadata description."
    },
    "allowlistedDomainsTitle": {
        "message": "在以下域名中暂停 LocalCDN：",
        "description": "Deactivate LocalCDN for these domains:"
    },
    "allowlistedDomainsDescription": {
        "message": "请输入要禁用 LocalCDN 的域名。每行一个。",
        "description": "Enter domains to disable LocalCDN there. One entry per line."
    },
    "advancedLabel": {
        "message": "高级",
        "description": "Advanced label"
    },
    "generateRuleSetTitle": {
        "message": "为你的广告拦截器生成规则集",
        "description": "Generate rule sets for your adblocker"
    },
    "generateRuleSetDescription": {
        "message": "如果你正在使用广告拦截器，你可以在这里生成规则。你需要手动把规则添加到广告拦截器中。",
        "description": "In case you are using an adblocker you can generate the rules here. You have to add these rules manually in your adblocker."
    },
    "lastUpdate": {
        "message": "上次更新：",
        "description": "Last update:"
    },
    "copyRuleSet": {
        "message": "复制",
        "description": "Text of button to copy ruleset"
    },
    "loggingTitle": {
        "message": "启用日志记录",
        "description": "Enable logging"
    },
    "loggingDescription": {
        "message": "你可以使用菜单中的图标打开日志。 关闭浏览器或禁用日志记录后，日志将被删除。",
        "description": "You can open the log with the icon in the menu. The log will be deleted when you close the browser or disable logging."
    },
    "featureBreaksWebsitesDescription": {
        "message": "这个功能会破坏网站功能。除非你准备手动将受影响的域名添加到允许列表中，否则请勿开启。",
        "description": "This feature breaks websites. Do not leave it enabled, unless you are prepared to manually add affected domains to the allow list."
    },
    "featureBreaksWebsitesButton": {
        "message": "禁用",
        "description": "Disable"
    },
    "labelManipulateDOM": {
        "message": "过滤 HTML 源码",
        "description": "Filter HTML source code"
    },
    "labelDonate": {
        "message": "捐赠",
        "description": "Donate"
    },
    "negateHtmlFilterListTitle": {
        "message": "反转 HTML 过滤器",
        "description": "Invert HTML filter"
    },
    "negateHtmlFilterListDescription": {
        "message": "开启此选项会始终应用 HTML 过滤器，此时列表中的域名将被忽略；若禁用此选项，则 HTML 过滤器仅应用于此列表中的域名。",
        "description": "Enable this option to always apply the HTML filter. The domains in the list will be ignored then. If this option is disabled, the HTML filter is only applied to domains in the list."
    },
    "negateHtmlFilterListWarning": {
        "message": "此功能可能会破坏网站。请阅读 Wiki 页面以了解更多信息。",
        "description": "This function can break websites. Please note the information on the Wiki page."
    },
    "htmlFilterDomainsTitleExclude": {
        "message": "不要将 HTML 过滤器应用于以下域名：",
        "description": "Do not apply HTML filter to these domains:"
    },
    "htmlFilterDomainsDescription": {
        "message": "输入 HTML 过滤器要处理或忽略的域名，每行一个。",
        "description": "Enter the domains to be handled or ignored by the HTML filter. One entry per line."
    },
    "htmlFilterDomainsTitleInclude": {
        "message": "对这些域名应用 HTML 过滤器：",
        "description": "Apply HTML filter for these domains:"
    },
    "blockGoogleFontsTitle": {
        "message": "屏蔽 Google Fonts",
        "description": "Block Google Fonts"
    },
    "blockGoogleFontsDescription": {
        "message": "如果允许加载缺少的资源，则不会阻止到 \"fonts.googleapis.com\" 的连接。开启此选项可阻止这些请求。",
        "description": "If requests for missing resources are allowed, connections to \"fonts.googleapis.com\" are not blocked. Enable this option to block these requests."
    },
    "chooseIconStyle": {
        "message": "选择一个此扩展程序的图标",
        "description": "Choose an icon for this extension"
    },
    "internalStatisticsTitle": {
        "message": "内部统计数据",
        "description": "Internal statistics"
    },
    "internalStatisticsDescription": {
        "message": "此功能当前正处于实验阶段。数据全部存储在本地，不会外传。",
        "description": "No data transmission. It’s all local on your device."
    },
    "headerStatistics": {
        "message": "统计数据",
        "description": "Statistics. The header of a statistics page."
    },
    "labelToday": {
        "message": "今天",
        "description": "Statistics view for today."
    },
    "labelPastWeek": {
        "message": "上周",
        "description": "Statistics view for past week."
    },
    "labelPastMonth": {
        "message": "上月",
        "description": "Statistics view for past month."
    },
    "labelPastYear": {
        "message": "去年",
        "description": "Statistics view for past year."
    },
    "labelDelete": {
        "message": "删除",
        "description": "Button to delete all statistics data."
    },
    "labelAvg": {
        "message": "平均（每天的替换）",
        "description": "Followed by a number of average injections per day within a specific period."
    },
    "labelInjectedFrameworks": {
        "message": "已替换框架",
        "description": "Followed by a number of injections within a specific period."
    },
    "dialogConfirmDeleteStatistics": {
        "message": "确定要删除所有的统计数据吗？",
        "description": "Are you sure you want to delete all the statistics?"
    },
    "labelDomainsAllowlistGoogleFonts": {
        "message": "允许以下域名加载 Google Fonts，每行一个。",
        "description": "These domains are allowed to load Google Fonts. One entry per line."
    },
    "btnGeneral": {
        "message": "基础",
        "description": "Basic"
    },
    "btnAdvanced": {
        "message": "高级",
        "description": "Advanced"
    },
    "btnOther": {
        "message": "其他",
        "description": "Other"
    },
    "btnInfo": {
        "message": "信息",
        "description": "Info"
    },
    "headerStorageType": {
        "message": "存储类型",
        "description": "Storage type"
    },
    "labelStorageTypeLocal": {
        "message": "本地",
        "description": "Local"
    },
    "labelStorageTypeSync": {
        "message": "同步",
        "description": "Sync"
    },
    "headerImportExport": {
        "message": "导入/导出",
        "description": "Import/Export"
    },
    "labelExportData": {
        "message": "备份到文件",
        "description": "Back up to file"
    },
    "labelImportData": {
        "message": "从文件还原",
        "description": "Restore from file"
    },
    "dialogImportSuccessful": {
        "message": "导入成功",
        "description": "Import successful"
    },
    "dialogImportFailed": {
        "message": "导入失败",
        "description": "Import failed"
    },
    "updateNotificationTitle": {
        "message": "更新后进行通知",
        "description": "Notification after an update"
    },
    "updateNotificationNever": {
        "message": "从不 （静默更新）",
        "description": "Never (Silent Updates)"
    },
    "updateNotificationOnlyRules": {
        "message": "仅当有新的 CDN 和规则时",
        "description": "Only if new CDNs and rules"
    },
    "updateNotificationAlways": {
        "message": "始终",
        "description": "Always"
    },
    "websiteBroken": {
        "message": "网站显示不正常？",
        "description": "Website broken?"
    },
    "hideDonationButton": {
        "message": "隐藏捐赠按钮",
        "description": "Hide donation button"
    },
    "betaLabel": {
        "message": "测试版",
        "description": "beta"
    },
    "changeBadgeColorMissingResourcesTitle": {
        "message": "在图标上标示缺失的资源",
        "description": "Indicate missing resources on the icon"
    },
    "changeBadgeColorMissingResourcesDescription": {
        "message": "如果资源缺失，改变徽章颜色。",
        "description": "Change the badge color if resources are missing."
    }
}
